(dp0
S'channels'
p1
(lp2
sS'mbid'
p3
S'0096e98d-7dc7-437a-957a-6719ff1a0f20'
p4
sS'name'
p5
S'Normaal'
p6
sS'result'
p7
(lp8
(dp9
S'videos'
p10
I20
sS'channel'
p11
VDitIsNormaal
p12
sS'measure'
p13
F0.42592895844584433
sa(dp14
g10
I20
sg11
Vbokkersdutnormaal
p15
sg13
F0.499925702972312
sas.