(dp0
S'channels'
p1
(lp2
S'NirvanaVEVO'
p3
aS'NirvanaGrunge87'
p4
asS'mbid'
p5
S'5b11f4ce-a62d-471e-81fc-a69a8278c7da'
p6
sS'name'
p7
S'Nirvana'
p8
sS'result'
p9
(lp10
(dp11
S'videos'
p12
I20
sS'channel'
p13
VBollywoodNirvana
p14
sS'measure'
p15
F0.44214067909451826
sa(dp16
g12
I20
sg13
Vstudiovolcan
p17
sg15
F0.440191572781242
sa(dp18
g12
I20
sg13
VNirvanaVEVO
p19
sg15
F0.8606278891541846
sa(dp20
g12
I20
sg13
VNirvanaGrunge87
p21
sg15
F0.9656020462218426
sa(dp22
g12
I20
sg13
VVapidVillainess
p23
sg15
F0.4096276298524607
sa(dp24
g12
I20
sg13
VApproachingNirvana
p25
sg15
F0.4392157095658491
sa(dp26
g12
I20
sg13
VEclipseNirvana
p27
sg15
F0.39668964444409177
sa(dp28
g12
I13
sg13
VCinemaNirvana
p29
sg15
F0.4162349923281097
sa(dp30
g12
I20
sg13
Vmankadawalasudassana
p31
sg15
F0.2337491724830215
sa(dp32
g12
I20
sg13
VNIRVANAenvivoforo
p33
sg15
F0.5368734258795059
sas.