(dp0
S'channels'
p1
(lp2
S'U2VEVO'
p3
asS'mbid'
p4
S'a3cb23fc-acd3-4ce0-8f36-1e5aa6a18432'
p5
sS'name'
p6
S'U2'
p7
sS'result'
p8
(lp9
(dp10
S'videos'
p11
I20
sS'channel'
p12
V
p13
sS'measure'
p14
F0.3776320336355977
sa(dp15
g11
I20
sg12
VU2GuitarTutorials
p16
sg14
F0.49307708667920547
sa(dp17
g11
I20
sg12
Vatu2
p18
sg14
F0.5552710985726467
sa(dp19
g11
I20
sg12
Vraoninery
p20
sg14
F0.7303897361418201
sa(dp21
g11
I20
sg12
VU2VEVO
p22
sg14
F0.9577873254564985
sa(dp23
g11
I20
sg12
VU2official
p24
sg14
F0.5723163579424337
sa(dp25
g11
I20
sg12
Vu2cover
p26
sg14
F0.5873453985000077
sa(dp27
g11
I20
sg12
VTheSouthernAccent
p28
sg14
F0.5902008296320927
sas.