(dp0
S'channels'
p1
(lp2
sS'mbid'
p3
S'b2029169-2574-4305-820f-252a5fde3697'
p4
sS'name'
p5
S'Meghan Trainor'
p6
sS'result'
p7
(lp8
(dp9
S'videos'
p10
I20
sS'channel'
p11
Vgeekbeattv
p12
sS'measure'
p13
I0
sa(dp14
g10
I20
sg11
VAquascape4
p15
sg13
I0
sa(dp16
g10
I20
sg11
VEeOneGuy
p17
sg13
I0
sa(dp18
g10
I20
sg11
VMyAhuevo
p19
sg13
I0
sa(dp20
g10
I20
sg11
Vsahabatnoah888
p21
sg13
I0
sa(dp22
g10
I20
sg11
VUNUChannel
p23
sg13
I0
sa(dp24
g10
I20
sg11
VLaCompagniadelLibro
p25
sg13
I0
sa(dp26
g10
I20
sg11
Vdiagonaluk
p27
sg13
I0
sa(dp28
g10
I20
sg11
VTheGameStation
p29
sg13
I0
sa(dp30
g10
I20
sg11
VSthlmNaturhistoriska
p31
sg13
I0
sas.