(dp0
S'channels'
p1
(lp2
sS'mbid'
p3
S'ceb7b6be-1dbb-4d80-b157-5588bc884764'
p4
sS'name'
p5
S'Slipknot'
p6
sS'result'
p7
(lp8
(dp9
S'videos'
p10
I8
sS'channel'
p11
V
p12
sS'measure'
p13
F0.5498005265026541
sa(dp14
g10
I20
sg11
Vslipknot
p15
sg13
F0.7470838279507009
sa(dp16
g10
I8
sg11
Vrenandpinheiro
p17
sg13
F0.3164080963536641
sa(dp18
g10
I20
sg11
VSlipknotPHarrington
p19
sg13
F0.342093567477165
sa(dp20
g10
I11
sg11
Vceciliaesss
p21
sg13
F0.29270381139812185
sa(dp22
g10
I20
sg11
Vgreenslipknot
p23
sg13
F0.2962300378950207
sas.