(dp0
S'channels'
p1
(lp2
S'DirectVEVO'
p3
asS'mbid'
p4
S'dcad1062-476a-4bde-beb9-391ac4ad5eaa'
p5
sS'name'
p6
S'Di-rect'
p7
sS'result'
p8
(lp9
(dp10
S'videos'
p11
I20
sS'channel'
p12
V
p13
sS'measure'
p14
F0.28058453811391193
sa(dp15
g11
I20
sg12
VAccesDirectAntena
p16
sg14
F0.3278880627714422
sa(dp17
g11
I20
sg12
VTheOfficialDirect
p18
sg14
F0.48325852447535145
sa(dp19
g11
I20
sg12
VGymDirectD8
p20
sg14
F0.36060247373227783
sa(dp21
g11
I20
sg12
Vtvpluslive
p22
sg14
F0.35769893205011216
sa(dp23
g11
I20
sg12
VDirectWarfare
p24
sg14
F0.5039650204652036
sa(dp25
g11
I20
sg12
VBeadsDirectTV
p26
sg14
F0.36460722522672684
sa(dp27
g11
I20
sg12
VTheGameDirect
p28
sg14
F0.3443298786579171
sa(dp29
g11
I20
sg12
Vtvplusdirect
p30
sg14
F0.357738056303761
sas.