(lp0
(dp1
S'channels'
p2
(lp3
S'U2VEVO'
p4
aS'U2official'
p5
asS'mbid'
p6
S'a3cb23fc-acd3-4ce0-8f36-1e5aa6a18432'
p7
sS'name'
p8
S'U2'
p9
sS'result'
p10
(lp11
(dp12
S'videos'
p13
I20
sS'channel'
p14
V
p15
sS'measure'
p16
F0.3776320336355977
sa(dp17
g13
I20
sg14
VU2GuitarTutorials
p18
sg16
F0.49307708667920547
sa(dp19
g13
I20
sg14
Vatu2
p20
sg16
F0.5552710985726467
sa(dp21
g13
I20
sg14
Vraoninery
p22
sg16
F0.7303897361418201
sa(dp23
g13
I20
sg14
VU2VEVO
p24
sg16
F0.9577873254564985
sa(dp25
g13
I20
sg14
VU2official
p26
sg16
F0.5723163579424337
sa(dp27
g13
I20
sg14
Vu2cover
p28
sg16
F0.5873453985000077
sa(dp29
g13
I20
sg14
VTheSouthernAccent
p30
sg16
F0.5902008296320927
sasa.