(lp0
(dp1
S'channels'
p2
(lp3
S'Maroon5VEVO'
p4
aS'TheBurle2011'
p5
asS'mbid'
p6
S'0ab49580-c84f-44d4-875f-d83760ea2cfe'
p7
sS'name'
p8
S'Maroon 5'
p9
sS'result'
p10
(lp11
(dp12
S'videos'
p13
I12
sS'channel'
p14
V
p15
sS'measure'
p16
F0.4273558957053467
sa(dp17
g13
I20
sg14
VMaroon5VEVO
p18
sg16
F0.8370635712948683
sa(dp19
g13
I20
sg14
VMaroon5
p20
sg16
F0.4803001918354499
sa(dp21
g13
I20
sg14
VTheBurle2011
p22
sg16
F0.6429219887824253
sasa(dp23
g2
(lp24
S'slipknot'
p25
asg6
S'a466c2a2-6517-42fb-a160-1087c3bafd9f'
p26
sg8
S'Slipknot'
p27
sg10
(lp28
(dp29
g13
I8
sg14
g15
sg16
F0.6737192031194583
sa(dp30
g13
I20
sg14
Vslipknot
p31
sg16
F0.7435630773917755
sa(dp32
g13
I8
sg14
Vrenandpinheiro
p33
sg16
F0.38594551108908737
sa(dp34
g13
I20
sg14
VSlipknotPHarrington
p35
sg16
F0.35643149160550747
sa(dp36
g13
I11
sg14
Vceciliaesss
p37
sg16
F0.2748519414802381
sa(dp38
g13
I20
sg14
Vgreenslipknot
p39
sg16
F0.32759065157740724
sasa(dp40
g2
(lp41
sg6
S'ceb7b6be-1dbb-4d80-b157-5588bc884764'
p42
sg8
g27
sg10
(lp43
(dp44
g13
I8
sg14
g15
sg16
F0.5498005265026541
sa(dp45
g13
I20
sg14
Vslipknot
p46
sg16
F0.7470838279507009
sa(dp47
g13
I8
sg14
Vrenandpinheiro
p48
sg16
F0.3164080963536641
sa(dp49
g13
I20
sg14
VSlipknotPHarrington
p50
sg16
F0.342093567477165
sa(dp51
g13
I11
sg14
Vceciliaesss
p52
sg16
F0.29270381139812185
sa(dp53
g13
I20
sg14
Vgreenslipknot
p54
sg16
F0.2962300378950207
sasa(dp55
g2
(lp56
S'benhowardmusic'
p57
aS'BenHowardVEVO'
p58
asg6
S'534dda3c-b73f-408b-8889-bd68eae84df6'
p59
sg8
S'Ben Howard'
p60
sg10
(lp61
(dp62
g13
I20
sg14
g15
sg16
F0.37809335282445394
sa(dp63
g13
I20
sg14
Vbenhowardmusic
p64
sg16
F0.7769052825359781
sa(dp65
g13
I20
sg14
VTheLockUpTV
p66
sg16
F0.39445769220086335
sa(dp67
g13
I20
sg14
Vsheerahoward
p68
sg16
F0.37651827172700736
sa(dp69
g13
I14
sg14
VBenHowardVEVO
p70
sg16
F0.8359105180533754
sa(dp71
g13
I6
sg14
VBenjaminNBS
p72
sg16
F0.39288283108539357
sasa(dp73
g2
(lp74
S'passengermusic'
p75
asg6
S'186e216a-2f8a-41a1-935f-8e30c018a8fe'
p76
sg8
S'Passenger '
p77
sg10
(lp78
(dp79
g13
I20
sg14
Vpassengermusic
p80
sg16
F0.6348862373748484
sa(dp81
g13
I20
sg14
VJulianVoglMusic
p82
sg16
F0.425024937899253
sa(dp83
g13
I6
sg14
VAprilwasapassenger
p84
sg16
F0.5759284783833611
sa(dp85
g13
I20
sg14
VPTExpo2011
p86
sg16
F0.415098583564112
sasa(dp87
g2
(lp88
S'TheRollingStones'
p89
aS'TheRollingStonesVEVO'
p90
asg6
S'b071f9fa-14b0-4217-8e97-eb41da73f598'
p91
sg8
S'The Rolling Stones'
p92
sg10
(lp93
(dp94
g13
I6
sg14
g15
sg16
F0.6216381840060604
sa(dp95
g13
I11
sg14
VTheRollingStonesVEVO
p96
sg16
F0.8089724229259112
sa(dp97
g13
I20
sg14
VTheRollingStones
p98
sg16
F0.7371942950712185
sa(dp99
g13
I20
sg14
Vrollingstonescoverbr
p100
sg16
F0.8136291050078874
sa(dp101
g13
I15
sg14
VRiesesPieses
p102
sg16
F0.5343272052111505
sa(dp103
g13
I20
sg14
Vrollingstonesonmv
p104
sg16
F0.40577405226311525
sasa(dp105
g2
(lp106
S'thebeatles'
p107
aS'TheBeatles19501'
p108
aS'BeatlesHD'
p109
asg6
S'b10bbbfc-cf9e-42e0-be17-e2c3e1d2600d'
p110
sg8
S'The Beatles'
p111
sg10
(lp112
(dp113
g13
I20
sg14
VBeatlesHD
p114
sg16
F0.990883015136309
sa(dp115
g13
I20
sg14
VTheBeatles19501
p116
sg16
F0.8977549054037508
sa(dp117
g13
I20
sg14
Vmlswartz
p118
sg16
F0.7092948734552182
sa(dp119
g13
I20
sg14
VBeatleBrony
p120
sg16
F0.4299189561324882
sa(dp121
g13
I20
sg14
VTheBeatlesPeruanosCF
p122
sg16
F0.6792445172831212
sa(dp123
g13
I20
sg14
Vimcarrying
p124
sg16
F0.5391754536320439
sa(dp125
g13
I20
sg14
Vthebeatles
p126
sg16
F0.6159649986705368
sa(dp127
g13
I20
sg14
VYohakiller
p128
sg16
F0.6680126158702799
sasa(dp129
g2
(lp130
sg6
S'0096e98d-7dc7-437a-957a-6719ff1a0f20'
p131
sg8
S'Normaal'
p132
sg10
(lp133
(dp134
g13
I20
sg14
VDitIsNormaal
p135
sg16
F0.42592895844584433
sa(dp136
g13
I20
sg14
Vbokkersdutnormaal
p137
sg16
F0.499925702972312
sasa.